{
  "gitlabUrl": "https://gitlab.factory.intescia.dev/api/v4",
  "gitlabToken": "XXXX",
  "currentUser": "Prenom NOM",
  "jiraUrl": "https://jira.factory.intescia.dev/rest/api/latest",
  "jiraLogin": "login",
  "jiraPassword": "password"
}